{
  "navbar-home": "Thuispagina",
  "navbar-freeproxylist": "Gratis proxy-lijst",
  "navbar-proxychecker": "Proxy-checker",
  "navbar-onlineproxychecker": "Online proxy-checker",
  "navbar-proxyfilter": "Proxy-filter",
  "navbar-extras": "Extra's",
  "navbar-extras-donate": "Doneer",
  "navbar-extras-status": "Staat",
  "navbar-extras-poll": "Poll",
  "navbar-extras-api": "Api",
  "navbar-communities": "Gemeenschappen",
  "navbar-communities-discord": "Discord",
  "navbar-communities-telegram": "Telegram",
  "navbar-communities-reddit": "Reddit",
  "navbar-info": "Info",
  "navbar-info-about": "Over ons",
  "navbar-info-faq": "Veelgestelde vragen",
  "navbar-info-contact": "Neem contact op met ons",
  "banner-1-title": "Gratis",
  "banner-1-subtitle": "proxy-lijst",
  "banner-1-desc": "Wij wijzigen onze gratis proxy-lijst elke 15 minuten zodat je zeker bent dat je de nieuwste & werkende proxy's krijgt",
  "banner-1-button": "Verkrijg nu gratis proxy's",
  "banner-2-title": "Snelle",
  "banner-2-subtitle": "Proxy-checker",
  "banner-2-desc": "Wij proberen je te voorzien van de nieuwste proxy's, maar wij raden je aan om ze altijd te controleren met de time-out naar keuze.",
  "banner-2-button": "Download proxy-checker",
  "banner-3-title": "Word lid",
  "banner-3-subtitle": "van discord-server",
  "banner-3-desc": "Heb je vragen of wil je gewoon chatten? Word lid van onze discord-server!",
  "banner-3-button": "Word lid!",
  "banner-4-title": "Meer",
  "banner-4-subtitle": "Over ProxyScrape",
  "banner-4-desc": "Hier leggen we uit hoe ProxyScrape ontstaan is, hoe we de proxy's controleren in de back-end en meer.",
  "banner-4-button": "Lees meer over ProxyScrape",
  "home-window-title": "Thuispagina - Hier start het",
  "home-title": "Welkom thuis",
  "home-body": "Welkom bij ProxyScrape. Hier geven wij je informatie over proxy's en hoe je ze gebruikt, een heel snelle proxy-checker en een lijst met meer dan 30 000 HTTP, Socks4 en Socks5 proxy's die elke 15 minuten wordt bewerkt!",
  "home-button-1": "Gratis",
  "home-button-2": "Up-to-date proxy's",
  "home-button-3": "Snel & gemakkelijk",
  "freeproxylist-window-title": "Gratis Proxy-lijst - Juist gecontroleerde proxy's",
  "freeproxylist-title": "Gratis Proxy-lijst - Juist gecontroleerde proxy's",
  "freeproxylist-currentpage": "Gratis Proxy-lijst",
  "freeproxylist-http-title": "HTTP gecontroleerde proxy-lijst",
  "freeproxylist-http-desc": "HTTP gecontroleerde proxy-lijst, download ze en gebruik ze direct!",
  "freeproxylist-socks4-title": "Socks4 gecontroleerde proxy-lijst",
  "freeproxylist-socks4-desc": "Socks4 gecontroleerde proxy-lijst",
  "freeproxylist-socks5-title": "Socks5 gecontroleerde proxy lijst",
  "freeproxylist-socks5-desc": "Socks5 gecontroleerde proxy-lijst",
  "freeproxylist-lastupdated": "Laatst geüpdatet:",
  "freeproxylist-minsago": "minuten geleden",
  "freeproxylist-timeout": "Time-out:",
  "freeproxylist-country": "Land:",
  "freeproxylist-ssl": "SSL",
  "freeproxylist-anonymity": "Anonimiteit:",
  "freeproxylist-onlyfor": "alleen voor http-proxy's",
  "freeproxylist-all": "alle",
  "freeproxylist-yes": "ja",
  "freeproxylist-no": "nee",
  "proxychecker-window-title": "Gratis snelle proxy-checker",
  "proxychecker-title": "PROXY-CHECKER",
  "proxychecker-desc": "Heel snelle proxy-checker gemaakt door WolfCrawler,  die http, socks5 en socks4-proxy's kan controleren.",
  "onlineproxychecker-window-title": "Online proxy-checker",
  "onlineproxychecker-invalid": "Er konden geen proxy's geladen worden. De lijst is niet correct.",
  "onlineproxychecker-notfinished": "De proxy-checker heeft nog niet gedaan",
  "onlineproxychecker-title": "Online proxy-checker",
  "onlineproxychecker-check": "CONTROLEER PROXY’S",
  "onlineproxychecker-status": "Check status",
  "onlineproxychecker-dead": "Dood",
  "onlineproxychecker-working": "Werkend",
  "onlineproxychecker-deadproxies": "Dode proxy's",
  "onlineproxychecker-workingproxies": "Werkende proxy's",
  "onlineproxychecker-totalproxies": "Totaal aantal proxy's",
  "onlineproxychecker-download": "DOWNLOAD WERKENDE PROXY’S",
  "proxyfilter-window-title": "Online proxy-filter",
  "proxyfilter-big-title": "PROXY-FILTER",
  "proxyfilter-title": "PROXY-FILTER",
  "proxyfilter-desc": "Filter proxy's naar ip:port-formaat",
  "proxyfilter-button": "FILTER",
  "donate-window-title": "Doneer aan ProxyScrape",
  "donate-big-title": "Doneer",
  "donate-title": "DONEER AAN PROXYSCRAPE",
  "donate-desc": "Om ProxyScrape zoveel mogelijk vrij te houden van advertenties, hebben we donaties nodig. Het gedoneerde geld word gebruikt om onze servers te betalen en soms wordt het gebruikt om developers te betalen als ik niet in staat ben om zelf een probleem op te lossen.",
  "donate-month-server-title": "MAANDELIJKS DONATIE DOEL VOOR SERVERS",
  "donate-month-projects-title": "MAANDELIJKS DONATIE DOEL VOOR TOEKOMSTIGE PROJECTEN",
  "donate-subdesc": "Dit geld gaat naar een coinbase kluis.",
  "donate-complete": "Compleet",
  "status-window-title": "ProxyScrape server status",
  "status-big-title": "STATUS",
  "status-title": "SERVER STATUS",
  "status-desc": "Deze pagina is gemaakt om te controleren dat de proxy-checker servers correct werken.",
  "api-window-title": "ProxyScrape proxy API",
  "api-big-title": "API-DOCUMENTATIE",
  "api-introduction-title": "INTRODUCTIE",
  "api-introduction-desc": "Hallo, en welkom bij de ProxyScrape API, de API kan gebruikt worden om te downloaden en het tonen van het aantal proxy's en om te zien wanneer ze laatst geüpdatet waren op een efficiënte manier.",
  "api-request-types-title": "SOORTEN AANVRAGEN",
  "api-request-types-desc": "Er zijn 4 soorten API-aanvragen die je kan maken, waaronder: getproxies, displayproxies, amountproxies and lastupdated",
  "api-request-types-getproxies-title": "getproxies",
  "api-request-types-getproxies-desc": "getproxies zal direct de proxy's downloaden wanneer je naar de url navigeert</br>getproxies ondersteunt meerdere parameters waaronder:",
  "api-request-types-box": "Output: Download elite http-proxy's met SSL aan met een time-out van 5000ms gelegen in US in ip:port-formaat.",
  "api-request-types-displayproxies-title": "displayproxies",
  "api-request-types-displayproxies-description": "displayproxies zal de proxy's niet downloaden, integendeel, het zal de proxy's tonen op de website.</br>displayproxies ondersteunt meerdere parameters waaronder:",
  "api-request-types-displayproxies-box": "Output: Vertoont elite http-proxy's met SSL met een time-out van 7000ms gelegen in DE in ip:port-formaat.",
  "api-request-types-amountproxies-title": "amountproxies",
  "api-request-types-amountproxies-desc": "amountproxies zal de hoeveelheid beschikbare proxy's weergeven met de gegeven condities.</br>amountproxies ondersteunt meerdere parameters waaronder:",
  "api-request-types-amountproxies-box": "Output: Toont hoeveel proxy's er zijn met de gegeven condities.",
  "api-request-types-lastupdated-title": "lastupdated",
  "api-request-types-lastupdated-desc": "lastupdated zal tonen wanneer de proxy's het laatst bewerkt waren;</br>lastupdated heeft maar 1 parameter:",
  "api-request-types-lastupdated-box": "Output: zal tonen wanneer de proxy's het laatst bewerkt waren met de gegeven condities, lastupdated heeft alleen de proxy-type parameter nodig.",
  "api-parameters-title": "PARAMETERS",
  "api-parameters-desc": "Parameters worden gebruikt om de API duidelijk te maken welke soort proxy's je wilt.",
  "api-parameters-proxytype-title": "proxy-type",
  "api-parameters-proxytype-desc1": "proxy-type heeft 4 ondersteunde parameters:",
  "api-parameters-proxytype-desc2": "Wanneer je geen parameter gebruikt, wordt het proxy-type automatisch op all gezet.",
  "api-parameters-timeout-title": "time-out",
  "api-parameters-timeout-desc": "De time-out is in ms.</br>Wanneer er geen time-out is gedefinieerd, wordt het automatisch op 10 000ms gezet.",
  "api-parameters-country-title": "land",
  "api-parameters-country-desc1": "De landparameter kan elke Alpha 2 ISO landcode zijn of 'all'. De landcodes kan je vinden <a href='https://www.nationsonline.org/oneworld/country_code_list.htm'>hier</a>.",
  "api-parameters-country-desc2": "Wanneer er geen land is opgegeven, wordt het automatisch op alles gezet.",
  "api-parameters-anonymity-title": "anonymity",
  "api-parameters-anonymity-desc1": "anonymity heeft 4 ondersteunde parameters:",
  "api-parameters-anonymity-desc2": "Wanneer geen anonymity-level is opgegeven, wordt het automatisch op all gezet.",
  "api-parameters-ssl-title": "ssl",
  "api-parameters-ssl-desc1": "ssl heeft 3 ondersteunde parameters:",
  "api-parameters-ssl-desc2": "Wanneer ssl niet is opgegeven, wordt het automatisch op all gezet.",
  "api-input": "Input",
  "aboutus-window-title": "Over ons",
  "aboutus-big-title": "OVER ONS",
  "aboutus-title": "Over ProxyScrape",
  "aboutus-subtitle": "Hoe proxyScrape ontstaan is en waarom we dit doen",
  "aboutus-desc": "Hier bij ProxyScrape, werken we onvermoeibaar (beep-boop) om je te voorzien van consequente, betrouwbare en gemakkelijke toegang tot HTTP en Socks-proxy's van over de hele wereld. Wij draaien een constant systeem om te zorgen dat je nooit zonder proxy's komt te staan! De proxy's zijn publiek; je kunt ze gebruiken hoe jij het wilt. Wij geloofden dat het te weinig betrouwbaar was, schone bronnen van proxy's; vandaar is ProxyScrape ontstaan. Wij weten dat er veel andere bronnen zijn, dus wij hebben al het werk gedaan voor jou! Alles wat je moet doen is op de toetsen klikken en je zal de proxy's downloaden die van veel bronnen was geschraapt. Wanneer je ze download van de gecheckte proxy's van de bronnen, download je de proxy's die al geverifieerd zijn om te werken wanneer ze zijn geüpload. Controleer zeker de proxy's nog eens met je gewenste time-out met je eigen proxy-checker. Deze site wordt voortdurend en zelfstandig vanuit ons eigen, op maat gesneden proxy-systeem bijgewerkt. Onze proxy-checker controleert proxy's met 800+ threads met een time-out van 10 seconden. In de achtergrond gebruiken we een python proxy-checker en een python proxy-scraper met meer dan 86+ bronnen. Blijf terugkomen als je meer proxy's nodig hebt. Voel je vrij om ProxyScrape te delen met je vrienden!",
  "faq-window-title": "Veelgestelde vragen",
  "faq-big-title": "VEELGESTELDE VRAGEN",
  "faq-title": "HIER ZIJN VEELGESTELDE VRAGEN OVER PROXY’S & PROXY-SCRAPE",
  "faq-opt-connect": "Verbinden met een proxy",
  "faq-opt-connect-firefox-title": "Hoe moet je verbinden met een proxy in Firefox?",
  "faq-opt-connect-firefox-desc": "1. Open het Firefox-menu en selecteer opties.<br>2. In de opties window, klik je op de advanced icoon. <br>3. Selecteer het netwerk Ttb. <br>4. In de connectie sectie, klik je de settings knop. <br>5. In de connectie instellingen window, selecteer je 'Manuele proxy configuratie' en voer je de proxy-ip en poort in, in de HTTP veld<br>6. Selecteer 'gebruik deze proxy server voor alle protocols'.<br>7. Sluit de connectie instellingen en opties door op de OK-knop te klikken.",
  "faq-opt-connect-internet-explorer-title": "Hoe moet je verbinden met een proxy in Internet Explorer?",
  "faq-opt-connect-internet-explorer-desc": "1. Klik op het pictogram Tools in de rechterbovenhoek en klik vervolgens op Internet-opties. <br>2. Klik op het tabblad Verbindingen. <br>3. Klik op de knop 'LAN-instellingen'. <br>4. Schakel in de LAN-instellingen het selectievakje 'Instellingen automatisch detecteren' uit. <br>5. Klik in de sectie Proxyserver op het selectievakje 'Een proxyserver gebruiken voor uw LAN ...' om in te schakelen. <br>6. Voer in het adresveld het IP-adres van uw proxy in en het proxypoortnummer in het poortveld. <br>7. Druk op OK en nogmaals op OK om uw instellingen op te slaan.",
  "faq-opt-connect-google-chrome-title": "Hoe verbinding maken met proxy's in Google Chrome?",
  "faq-opt-connect-google-chrome-desc": "1. Open de instellingen en scrol omlaag naar geavanceerd. <br>2. Klik op proxy-instellingen openen. <br>3. Klik op de knop 'LAN-instellingen'. <br>4. Schakel in de LAN-instellingen het selectievakje 'Instellingen automatisch detecteren' uit. <br>5. Klik in de sectie Proxyserver op het selectievakje 'Een proxyserver gebruiken voor uw LAN ...' om in te schakelen. <br>6. Voer in het adresveld het IP-adres van uw proxy in en het proxypoortnummer in het poortveld. <br>7. Druk op OK en nogmaals op OK om uw instellingen op te slaan.",
  "faq-opt-connect-opera-title": "Hoe verbinding maken met proxy's in Opera?",
  "faq-opt-connect-opera-desc": "1. Open de instellingen. <br>2. Klik op proxy-instellingen openen en wijzigen. <br>3. Klik op de knop 'LAN-instellingen'. <br>4. Schakel in de LAN-instellingen het selectievakje 'Instellingen automatisch detecteren' uit. <br>5. Klik in de sectie Proxyserver op het selectievakje 'Een proxyserver gebruiken voor uw LAN ...' om in te schakelen. <br>6. Voer in het adresveld het IP-adres van uw proxy in en het proxypoortnummer in het poortveld. <br>7. Druk op OK en nogmaals op OK om uw instellingen op te slaan.",
  "faq-opt-security": "Veiligheid",
  "faq-opt-security-log-title": "Wat registreren we?",
  "faq-opt-security-log-desc": "We registreren alles wat de proxyserver doet, controleren proxy's, proxy's schrapen enz. We gebruiken ook Google Analytics om gebruikersactiviteit bij te houden. We registreren momenteel geen IP's van onze gebruikers.",
  "faq-opt-security-protection-title": "Beschermt een proxy mij tegen hackers?",
  "faq-opt-security-protection-desc": "Een proxy kan een extra beveiligingslaag toevoegen, maar dit maakt je nog steeds niet 100% veilig. De proxy's die we aanbieden zijn openbare proxy's, dit betekent dat de proxy ook kan worden geïnfecteerd.",
  "faq-opt-security-ip-title": "Kunnen mensen mijn ip zien als origineel ip als ik een proxy gebruik?",
  "faq-opt-security-ip-desc": "Afhankelijk van de proxy's die je gebruikt, transparante proxy, elite proxy, anonieme proxy, kunnen mensen je oorspronkelijke ip-adres al dan niet zien.",
  "faq-opt-security-crypt-title": "Worden mijn gegevens gecodeerd wanneer ik een proxy gebruik?",
  "faq-opt-security-crypt-desc": "Als je een beveiligde sockets-layer proxy of ssl-proxy gebruikt, worden je gegevens meestal gecodeerd tussen jou en de proxy-server.",
  "faq-opt-limits": "Beperkingen",
  "faq-opt-limits-purpose-title": "Met welk doel kan ik deze proxy’s gebruiken?",
  "faq-opt-limits-purpose-desc": "Deze proxy's zijn volledig publiek en je kunt ze gebruiken voor alles wat je maar wilt, maar sommige proxy's kunnen worden verboden op de sites die je wilt gebruiken.",
  "faq-opt-limits-bandwidth-title": "Wat is de proxy-bandbreedte?",
  "faq-opt-limits-bandwidth-desc": "Als de bandbreedte van de proxy wordt overschreden, zal de proxy waarschijnlijk sterven.",
  "faq-opt-limits-timeout-title": "Wat is de time-out voor de proxyverbinding?",
  "faq-opt-limits-timeout-desc": "De time-out voor verbindingen kan van 50ms tot 100 seconden zijn, maar we controleren onze proxy-lijst met een time-out van 30 seconden.",
  "faq-opt-limits-scrape-title": "Kan ik een scraper gebruiken om de proxy's van deze website te downloaden?",
  "faq-opt-limits-scrape-desc": "Ja, je kunt een proxy-schraper gebruiken om de proxy-lijst te downloaden, zolang je de website niet beschadigt.",
  "faq-opt-backend": "Back-end",
  "faq-opt-backend-freeproxy-title": "Hoe vaak wordt de gratis proxy-lijst bijgewerkt?",
  "faq-opt-backend-freeproxy-desc": "De gratis proxy-lijst wordt elke 15-20 minuten bijgewerkt.",
  "faq-opt-backend-protocols-title": "Op welke proxy-protocollen wordt er gecontroleerd?",
  "faq-opt-backend-protocols-desc": "We controleren op http(s), socks4 en socks5-protocollen.",
  "faq-opt-backend-websites-title": "Van hoeveel websites wordt er geschraapt?",
  "faq-opt-backend-websites-desc": "Tussen 80-100 proxy-websites, afhankelijk of ze nog werken.",
  "faq-opt-backend-language-title": "In welke codeertaal is de proxy-checker gecodeerd?",
  "faq-opt-backend-language-desc": "Onze proxy-checker is gecodeerd in python3.",
  "faq-opt-money": "Geld en Donaties",
  "faq-opt-money-earn-title": "Hoe wordt er geld verdiend met deze proxy-website?",
  "faq-opt-money-earn-desc": "Op dit moment maken we geen winst met deze proxy-website.",
  "faq-opt-money-donate-title": "Kan ik doneren?",
  "faq-opt-money-donate-desc": "Ja, je kunt doneren met crypto's: <br>BTC: 3Bexk92aipRFeW3rQK3SBKBNTQ3URqiR79 <br>ETH: 0x0D3B38690ad9A65737532E694AD534646b8E2562 <br>We zullen proberen de donaties te belonen door je op de betreffende pagina te bedanken met een url naar je website/profiel.",
  "faq-opt-money-ads-title": "Kun je mijn site pop-up laten maken wanneer mensen op downloaden klikken?",
  "faq-opt-money-ads-desc": "Ja, voor een acceptabele prijs zullen we graag je advertentie op onze website tonen, neem contact met me op over discord: Thiplol#0248.",
  "faq-opt-money-cost-title": "Hoeveel betaal je voor je proxy-website?",
  "faq-opt-money-cost-desc": "Het hangt ervan af wat mijn plannen zijn, tussen $30-40 per maand.",
  "faq-opt-others": "Anderen",
  "faq-opt-others-buy-title": "Wat is de beste plaats om proxy's te kopen?",
  "faq-opt-others-buy-desc": "Voor betaalde proxy's raden we aan <a href='https://rsocks.net/signup?ref=E59nazidAezSO-GpRyxmcmH-MKKZwV3DiocjVH'>rSocks</a> en <a href='http://www.proxyrack.com/access/aff/go/psychicalts&#10;'>ProxyRack</a>.",
  "faq-opt-others-sell-title": "Verkoop je proxy's?",
  "faq-opt-others-sell-desc": "Hoe graag we ook proxy's zouden willen verkopen, ipv4-proxy's zijn erg duur en daar hebben we momenteel het geld niet voor. Ipv6-proxy's zijn erg goedkoop, er worden miljoenen aangeboden voor minder dan $1, maar de meeste programma's ondersteunen nog geen ipv6-proxy's.",
  "faq-opt-others-start-title": "Waarom ben je begonnen met deze website?",
  "faq-opt-others-start-desc": "We denken dat er een gebrek is aan gratis proxylijst-websites die alle online proxy's weergeven.",
  "faq-opt-others-help-title": "Wie heeft geholpen bij het maken van deze website?",
  "faq-opt-others-help-desc": "De website is voornamelijk gemaakt door <a href='https://www.nulled.to/user/1193005-notthiplol'>Thiplol</a> en <a href='https://www.nulled.to/user/1451856-amfuck'>AmKid</a>",
  "poll-title": "Poll",
  "contact-big-title": "NEEM CONTACT MET ONS OP",
  "contact-title": "COMMUNICATIE IS ALLES",
  "contact-desc": "Heb je nog andere vragen of wil je gewoon zaken doen? Je kunt hier contact met ons opnemen",
  "contact-button-title": "E-mail ons",
  "contact-button-desc": "Of e-mail rechtstreeks naar contact@proxyscrape.com",
  "footer-faq-title": "Veelgestelde Vragen",
  "footer-faq-desc": "Heb je vragen over proxy's of hoe je contact met ze kunt maken? Bekijk deze Veelgestelde Vragen voordat je contact met ons opneemt.",
  "footer-faq-button": "Ga naar Veelgestelde Vragen",
  "footer-contact-title": "Neem contact op met ons",
  "footer-contact-desc": "Heb je na het lezen van de Veelgestelde Vragen nog steeds vragen of wil je misschien doneren aan onze gratis proxy-service? Je kunt hier contact met ons opnemen.",
  "footer-contact-button": "Neem contact op met ons",
  "footer-discord-title": "Word lid van discord",
  "footer-discord-desc": "Heb je vragen of wil je gewoon chatten? Word lid van onze discordserver!",
  "footer-discord-button": "Doe mee aan onenigheid",
  "footer-freeproxylist-title": "Gratis proxy-lijst",
  "footer-freeproxylist-desc": "30.000+ gratis HTTP Socks5 en Socks4 Proxy-lijsten, de proxy's worden elke 15 minuten bijgewerkt om ervoor te zorgen dat je steeds de nieuwste proxy's krijgt.",
  "footer-freeproxylist-button": "Download gratis proxy-lijst",
  "footer-about-title": "Over ProxyScrape",
  "footer-about-desc": "Hier vertellen we je een beetje meer over ProxyScrape, hoe we de proxy's controleren en wie verantwoordelijk is voor deze sexy proxy-website.",
  "footer-about-button": "Lees over ons",
  "footer-checker-title": "Proxy-checker",
  "footer-checker-desc": "Een zeer snelle proxy-checker gemaakt door WolfCrawler. Het kan http, socks5 en socks4-proxy's met een ongelooflijke snelheid controleren.",
  "footer-checker-button": "Verkrijg een snelle proxy-checker",
  "footer-notify-1": "Maak het jezelf gemakkelijk en doe mee aan de <a href='https://www.reddit.com/r/proxyscrape'>ProxyScrape sub-reddit</a>",
  "footer-notify-2": "Word lid van onze <a href='https://t.me/proxyscrape'> Telegram </a>en krijg een duidelijk overzicht van wat er in de maak is!",
  "footer-notify-3": "Word lid van onze<a href='https://proxyscrape.com/discord'> discord </a>om te weten wat er in de maak is!",
  "footer-notify-4": "Vind je ProxyScrape leuk? Overweeg te <a href='/en/donate'>doneren!</a>",
  "footer-dark": "Donker thema",
  "footer-light": "Licht thema",
  "footer-notify-close": "Sluiten"
}