{
    "navbar-home" : "Anasayfa",
    "navbar-freeproxylist" : "Ücretsiz proxy listesi",
    "navbar-proxychecker" : "Proxy denetleyicisi",
    "navbar-onlineproxychecker" : "Online proxy denetleyicisi",
    "navbar-proxyfilter" : "Proxy filtresi",
    "navbar-extras" : "Ekstralar",
    "navbar-extras-donate" : "Bağış",
    "navbar-extras-status" : "Durum",
    "navbar-extras-poll" : "Anket",
    "navbar-extras-api" : "Api",
    "navbar-communities" : "Topluluklar",
    "navbar-communities-discord" : "Discord",
    "navbar-communities-telegram" : "Telegram",
    "navbar-communities-reddit" : "Reddit",
    "navbar-info" : "Bilgi",
    "navbar-info-about" : "Hakkında",
    "navbar-info-faq" : "SSS",
    "navbar-info-contact" : "İletişim",
    "banner-1-title" : "Ücretsiz",
    "banner-1-subtitle" : "proxy listesi",
    "banner-1-desc" : "Çalışan ve en taze proxyleri kullanmanızı sağlamak için proxy listemizi 15 dakikada bir güncelliyoruz.",
    "banner-1-button" : "Şimdi ücretsiz proxyleri al",
    "banner-2-title" : "Hızlı",
    "banner-2-subtitle" : "Proxy denetleyicisi",
    "banner-2-desc" : "Elimizden geldiğince güncel proxyler sağlamaya çalışıyoruz fakat istediğiniz timeout süresine göre kontrol etmenizi öneriyoruz.",
    "banner-2-button" : "Proxy denetleyicisini indir",
    "banner-3-title" : "Discord",
    "banner-3-subtitle" : "Sunucumuza katılın",
    "banner-3-desc" : "Birtakım sorularınız varsa veya sadece sohbet etmek istiyorsanız discord sunucumuza katılın!",
    "banner-3-button" : "Şimdi katılın!",
    "banner-4-title" : "Daha fazla",
    "banner-4-subtitle" : "Proxyscrape hakkında",
    "banner-4-desc" : "Şimdi proxyscrape'in nasıl doğduğunu, arkaplanda proxyleri nasıl kontrol ettiğimizi ve fazlasını açıklıyoruz.",
    "banner-4-button" : "Proxyscrape hakkında fazlasını oku",
    "home-window-title" : "Anasayfa - Burada başlıyor",
    "home-title" : "Anasayfaya hoşgeldin",
    "home-body" : "Proxyscrape'e hoşgeldin, burada proxy bilgilerini sağlıyor ve nasıl kullanılacağını anlatıyoruz, çok hızlı bir proxy denetleyicisi ile 30000'den fazla HTTP, Socks4 ve Socks5 proxy listelerini her 15 dakikada bir güncelliyoruz.",
    "home-button-1" : "Ücretsiz",
    "home-button-2" : "Güncel proxyler",
    "home-button-3" : "Hızlı ve kolay",
    "freeproxylist-window-title" : "Ücretsiz Proxy Listesi - Yeni Kontrol Edilmiş Proxyler",
    "freeproxylist-title" : "Ücretsiz Proxy Listesi - Yeni Kontrol Edilmiş Proxyler",
	"freeproxylist-currentpage" : "Ücretsiz Proxy Listesi",
    "freeproxylist-http-title" : "HTTP Kontrol edilmiş proxy listesi",
    "freeproxylist-http-desc" : "HTTP Kontrol edilmiş proxy listesi, sadece indir ve kullanmaya başla!",
    "freeproxylist-socks4-title" : "Socks4 Kontrol edilmiş proxy listesi",
    "freeproxylist-socks4-desc" : "Socks4 Kontrol edilmiş proxy listesi, sadece indir ve kullanmaya başla!",
    "freeproxylist-socks5-title" : "Socks5 Kontrol edilmiş proxy listesi",
    "freeproxylist-socks5-desc" : "Socks5 Kontrol edilmiş proxy listesi, sadece indir ve kullanmaya başla!",
    "freeproxylist-lastupdated" : "En son:",
    "freeproxylist-minsago" : "dakika önce güncellendi",
    "freeproxylist-timeout" : "Zaman aşımı:",
    "freeproxylist-country" : "Ülke:",
    "freeproxylist-ssl" : "SSL",
    "freeproxylist-anonymity" : "Gizlilik:",
    "freeproxylist-onlyfor" : "sadece http proxyler için",
	"freeproxylist-all" : "hepsi",
	"freeproxylist-yes" : "evet",
	"freeproxylist-no" : "hayır",
    "proxychecker-window-title" : "Ücretsiz hızlı proxy denetleyici",
    "proxychecker-title" : "PROXY DENETLEYİCİSİ",
    "proxychecker-desc" : "WolfCrawler tarafından yapılan çok hızlı bir proxy denetleyicisi, http, Socks5 ve Socks4 proxyleri kontrol edebiliyor.",
	"onlineproxychecker-window-title" : "Online proxy denetleyicisisi",
	"onlineproxychecker-invalid" : "Proxy yüklenemedi. Liste geçersiz.",
	"onlineproxychecker-notfinished" : "Denetleyici henüz bitmedi",
	"onlineproxychecker-title" : "Online proxy denetleyicisi",
	"onlineproxychecker-check" : "PROXYLERİ KONTROL ET",
	"onlineproxychecker-status" : "Denetleyici durumu",
	"onlineproxychecker-dead" : "Ölü",
	"onlineproxychecker-working" : "Çalışıyor",
	"onlineproxychecker-deadproxies" : "Ölü proxyler",
	"onlineproxychecker-workingproxies" : "Çalışan proxyler",
	"onlineproxychecker-totalproxies" : "Toplam proxy sayısı",
	"onlineproxychecker-download" : "ÇALIŞAN PROXYLERİ İNDİR",
    "proxyfilter-window-title" : "Online proxy filtresi",
    "proxyfilter-big-title" : "PROXY FİLTRESİ",
    "proxyfilter-title" : "PROXY FİLTRESİ",
    "proxyfilter-desc" : "Proxyleri ip:port formatına göre filtrele",
    "proxyfilter-button" : "FİLTRELE",
    "donate-window-title" : "Proxyscrape'e bağış yap",
    "donate-big-title" : "BAĞIŞ",
    "donate-title" : "PROXYSCRAPE'E BAĞIŞ YAP",
    "donate-desc" : "Proxyscrape'i reklamlardan uzak tutmak için bağışlara ihtiyacımız var. Bağışladığınız paralar sunucularımız için ve bazen kendi başıma bir şeyleri yapamazsam veya düzeltemezsem geliştiricilere ödemek için harcanılacak.",
    "donate-month-server-title" : "SUNUCULAR İÇİN AYLIK BAĞIŞ HEDEFİ",
    "donate-month-projects-title" : "GELECEKTEKİ PROJELER İÇİN AYLIK BAĞIŞ HEDEFİ",
    "donate-subdesc" : "Bu para bir madeni para kasasına gidiyor.",
	"donate-complete" : "Tamamlandı",
    "status-window-title" : "Proxyscrape sunucu durumu",
    "status-big-title" : "DURUM",
    "status-title" : "SUNUCU DURUMU",
    "status-desc" : "Bu sayfa denetleyicinin düzgün çalışıp çalışmadığını kontrol etmek için yapıldı.",
	"api-window-title" : "ProxyScrape proxy API",
    "api-big-title" : "API DÖKÜMANLARI",
	"api-introduction-title" : "GİRİŞ",
	"api-introduction-desc" : "Merhaba ve proxyscrape API'sine hoşgeldin, API, indirmek için, görüntü için veya proxy miktarını ve en son ne zaman güncellendiğini etkili bir yolda öğrenmeye yarar.",
	"api-request-types-title" : "TALEP ÇEŞİTLERİ",
	"api-request-types-desc" : "4 çeşit API talebinde bulunabilirsiniz, getproxies, displayproxies, amountproxies ve lastupdated",
	"api-request-types-getproxies-title" : "getproxies",
	"api-request-types-getproxies-desc" : "getproxies anında proxyleri indirecektir.</br>getproxies çoklu parametreleri destekler bunun gibi:",
	"api-request-types-box" : "Output: SSL'si aktif, 5000ms zaman aşım süresi olan Amerika'da bulunan ortak ip:port formatı olan elit http proxyleri indirir.",
	"api-request-types-displayproxies-title" : "displayproxies",
	"api-request-types-displayproxies-description" : "displayproxies proxyleri indirmeyip onun yerine sitede gösterecektir.</br>displayproxies çoklu parametreleri destekler bunun gibi:",
	"api-request-types-displayproxies-box" : "Output: SSL'si kapalı, 7000ms zaman aşım süresi olan Almanya'da bulunan ortak ip:port formatı olan elit http proxyleri gösterir.",
	"api-request-types-amountproxies-title" : "amountproxies",
	"api-request-types-amountproxies-desc" : "amountproxies belirtilen şartlar için mevcut proxy miktarını kontrol edecektir.</br>amountproxies çoklu parametreleri destekler bunun gibi:",
	"api-request-types-amountproxies-box" : "Output: Belirtilen şartlar için mevcut proxy miktarını kontrol edecektir",
	"api-request-types-lastupdated-title" : "lastupdated",
	"api-request-types-lastupdated-desc" : "lastupdated En son güncellenen zamana göre dönecektir.</br>lastupdated sadece 1 parametre ister:",
	"api-request-types-lastupdated-box" : "Output: Verilen şartlar için en son güncellenen zamana göre dönecektir, lastupdated sadece proxytype parametresini ister.",
	"api-parameters-title" : "PARAMETRELER",
	"api-parameters-desc" : "Parametreler API'a hangi çeşit proxyler istediğinizi söylemenizi sağlar.",
	"api-parameters-proxytype-title" : "proxytype",
	"api-parameters-proxytype-desc1" : "proxytype 4 geçerli parametreye sahiptir:",
	"api-parameters-proxytype-desc2" : "Proxy çeşidi seçmediğinizde otomatik olarak hepsi seçilir.",
	"api-parameters-timeout-title" : "timeout",
	"api-parameters-timeout-desc" : "Zaman aşımı milisaniye olarak hesaplanır.</br>Eğer zaman aşımı ayarlamazsanız otomatik olarak 10000ms'ye ayarlanır.",
	"api-parameters-country-title" : "ülke",
	"api-parameters-country-desc1" : "Ülke parametresi herhangi bir Alpha 2 ISO ülke kodu veya 'hepsi' olabilir, ülke kodları buradan <a href='https://www.nationsonline.org/oneworld/country_code_list.htm'>bulunabilir</a>.",
	"api-parameters-country-desc2" : "Bir ülke belirlemezseniz otomatik olarak hepsi seçilir.",
	"api-parameters-anonymity-title" : "anonymity",
	"api-parameters-anonymity-desc1" : "Anonymity 4 geçerli parametreye sahiptir:",
	"api-parameters-anonymity-desc2" : "Anonymity seviyesi seçmediğinizde otomatik olarak hepsi seçilir.",
	"api-parameters-ssl-title" : "ssl",
	"api-parameters-ssl-desc1" : "ssl 3 geçerli parametreye sahiptir:",
	"api-parameters-ssl-desc2" : "ssl seçmediğinizde otomatik olarak hepsi seçilir.",
	"api-input" : "Input",
    "aboutus-window-title" : "Bizim hakkımızda",
    "aboutus-big-title" : "BİZİM HAKKIMIZDA",
    "aboutus-title" : "Proxyscrape Hakkında",
    "aboutus-subtitle" : "Proxyscrape nasıl doğdu ve bunu neden yapıyoruz",
    "aboutus-desc" : "Burda ProxyScrape'de yorulmadan (beep-boop) size dünyanın her yerinden tutarlı, güvenilir, kolay erişilen HTTP ve Socks proxyleri sağlıyoruz. Sizin asla taze proxysiz kalmadığınızdan emin olmak için tutarlı bir sistem yürütüyoruz! Proxyler herkese açık; nasıl dilerseniz öyle kullanabilirsiniz. Bir yerlerde ciddi bir güvenilirlik eksikliğinin olduğuna inandık; bu yüzden ProxyScrape doğdu. Çok fazla kaynak olduğunu biliyoruz, bu yüzden biz de devam ettik ve bunu senin için yaptık! Tek yapmanız gereken butonlara tıklamak, ve sonrasında birçok kaynaktan ayıklanmış proxyleri indirmiş olacaksınız. Kontrol edilmiş proxyleri indirirken, zaten çalışan ve biz yüklerken çalıştığı onaylanmış proxyleri indirmiş olursunuz. Kendi proxy denetleyicinizi kullanarak proxyleri tekrar tercih ettiğiniz zaman aşım süresine göre kontrol etmeyi unutmayın. Bu site sürekli ve otomatik olarak bizim kendi ve özel yaptığımız proxy sistemiyle güncellenir. Bizim proxy denetleyicimiz proxyleri aynı anda 800'den fazla işlemle 10 saniyelik zaman aşımına ayarlı olarak proxyleri kontrol eder. İşin arka alanında, 86 üzeri kaynaktan python proxy denetleyicisi ve python proxy ayıklayıcısı kullanıyoruz. Daha fazla proxye ihtiyacınız olursa kontrol etmeye devam edin. ProxyScrape'i paylaşmakta ve arkadaşlarınıza bahsetmekte rahat hissedin!",
    "faq-window-title" : "Sıkça sorulan sorular",
    "faq-big-title" : "SIKÇA SORULAN SORULAR",
    "faq-title" : "İŞTE PROXYLER VE PROXYSCRAPE HAKKINDA SIKÇA SORULAN SORULARDAN BAZILARI",
    "faq-opt-connect" : "Proxylere bağlanmak",
    "faq-opt-connect-firefox-title" : "Firefox'ta nasıl proxylere bağlanılır?",
    "faq-opt-connect-firefox-desc" : "1. Firefox menüsünü açın ve ayarları seçin. <br>2. Ayarlar ekranında gelişmiş ikonuna tıklayın. <br>3. Bağlantı sekmesini seçin. <br>4. Bağlantı kısmında ayarlar butonuna tıklayın. <br>5. Bağlantı ayarları ekranında 'Manuel proxy ayarlama'yı seçin ve proxy adresini ve portunu HTTP kısmına yazın. <br>6. 'Tüm protokoller için bu proxy sunucusunu kullan'ı seçin. <br>7. Bağlantı ayarlarını ve ayarlar penceresini OK butonuna basarak kapatın." ,
    "faq-opt-connect-internet-explorer-title" : "Internet Explorer'de nasıl proxylere bağlanılır?",
    "faq-opt-connect-internet-explorer-desc" : "1. Öncelikle sağ üst köşeden Araçlar ikonuna tıklayın, sonra Internet seçeneklerine tıklayın. <br>2. Bağlantılar sekmesine tıklayın. <br>3. 'LAN Ayarları' butonuna tıklayın. <br>4. LAN ayarlarında 'Ayarları otomatik ayarla' kutusunun tikini kaldırın. <br>5. Proxy sunucusu kısmında 'LAN adresiniz için bir proxy sunucusu kullanın...' kısmını tikleyin. <br>6. Adres kısmına proxynizin adresini, port kısmına da port numarasını yazın. <br>7. OK'a basın ve sonra ayarlarınızı kaydetmek için tekrar OK'a basın.",
    "faq-opt-connect-google-chrome-title" : "Google Chrome'da nasıl proxylere bağlanılır",
    "faq-opt-connect-google-chrome-desc" : "1. Ayarları açın ve gelişmiş ayarlara kadar aşağı kaydırın. <br>2. Proxy ayarlarını açın. <br>3. 'LAN Ayarları' butonuna tıklayın. <br>4. LAN ayarlarında, 'Ayarları otomatik tespit et' diyen kutudaki tiki kaldırın. <br>5. Proxy sunucu kısmında kutucuğa tıklayıp 'LAN bağlantınız için bir proxy sunucusu kullan' seçeneğini tikleyin. <br>6. Adres kısmına proxynizin adresini, port kısmına da port numarasını yazın. <br>7. OK'a basın ve sonra ayarlarınızı kaydetmek için tekrar OK'a basın.",
    "faq-opt-connect-opera-title" : "Opera'da nasıl proxylere bağlanılır?",
    "faq-opt-connect-opera-desc" : "1. Ayarları açın. <br>2. Proxy ayarlarını değiştire basın. <br>3. 'LAN Ayarları' butonuna basın. <br>4. LAN ayarlarında, 'Ayarları otomatik tespit et' diyen kutudaki tiki kaldırın. <br>5. Proxy sunucu kısmında kutucuğa tıklayıp 'LAN bağlantınız için bir proxy sunucusu kullan' seçeneğini tikleyin. <br>6. Adres kısmına proxynizin adresini, port kısmına da port numarasını yazın. <br>7. OK'a basın ve sonra ayarlarınızı kaydetmek için tekrar OK'a basın.",
    "faq-opt-security" : "Güvenlik",
    "faq-opt-security-log-title" : "Nelerin loglarını tutarız?",
    "faq-opt-security-log-desc" : "Proxy sunucusunun logunu tuttuğu her şeyin logunu tutarız, proxy kontrol etme, ayıklama vs. ayrıca kullanıcı aktivitesini izlemek için Google analytics kullanırız. Şuanlık kullanıcılarımızın ip loglarını tutmuyoruz.",
    "faq-opt-security-protection-title" : "Bir proxy beni hackerdan korur mu?",
    "faq-opt-security-protection-desc" : "Proxy size koruma anlamında ek bir katman yaratabilir ama yine de sizi %100 güvende tutamaz. Bizim sağladığımız proxyler herkese açık proxyler, bu da demek oluyor ki proxyde virüs bile olabilir.",
    "faq-opt-security-ip-title" : "İnsanlar proxy kullanırken gerçek ip'mi görebilirler mi?",
    "faq-opt-security-ip-desc" : "Hangi çeşit proxy kullandığına bağlı, transparent proxy, elite proxy, anonymous proxy, görebilirler veya göremeyebilirler.",
    "faq-opt-security-crypt-title" : "Proxy kullanırken verilerim şifrelenir mi?",
    "faq-opt-security-crypt-desc" : "Güvenli bir soket katmanı proxy veya ssl proxy kullanıyorsanız, verileriniz çoğunlukla siz ve proxy sunucusu arasında şifrelenir.",
    "faq-opt-limits" : "Sınırlamalar",
    "faq-opt-limits-purpose-title" : "Hangi amaçlarla bu proxyleri kullanabilirim?",
    "faq-opt-limits-purpose-desc" : "Bu proxyler tamamen herkese açık ve istediğiniz gibi kullanabilirsiniz fakat herkese açık oldukları için bazıları kullanmak istediğiniz sitelerden banlı olabilirler.",
    "faq-opt-limits-bandwidth-title" : "Proxy bant genişliği nedir?",
    "faq-opt-limits-bandwidth-desc" : "Proxy'nin bant genişliği aşıldığında proxy muhtemelen ölecektir.",
    "faq-opt-limits-timeout-title" : "Proxy bağlantı zaman aşımı nedir?",
    "faq-opt-limits-timeout-desc" : "Bağlantı zaman aşımı süresi 50ms'den 100 saniyeye kadar olabilir, ancak biz proxy listemizi 30 saniyelik zaman aşımı süresiyle kontrol ederiz.",
    "faq-opt-limits-scrape-title" : "Bu websitesinden proxy indirmek için ayıklayıcı kullanabilir miyim??",
    "faq-opt-limits-scrape-desc" : "Evet proxy listesini indirmek için ayıklayıcı kullanabilirsin, siteye zarar vermediğin sürece umrumuzda değil.",
    "faq-opt-backend" : "Back-end",
    "faq-opt-backend-freeproxy-title" : "Ücretsiz proxy listesi ne kadar sıklıkla güncellenir?",
    "faq-opt-backend-freeproxy-desc" : "Ücretsiz proxy listesi her 15-20 dakikada bir güncellenir.",
    "faq-opt-backend-protocols-title" : "Hangi proxy protokollerini kontrol ediyorsunuz?",
    "faq-opt-backend-protocols-desc" : "http(s), socks4 ve socks5 protokollerini.",
    "faq-opt-backend-websites-title" : "Ne kadar siteden proxy ayıklıyorsunuz?",
    "faq-opt-backend-websites-desc" : "Eğer hepsi çalışıyorsa 80-100 arası.",
    "faq-opt-backend-language-title" : "Proxy denetleyiciniz hangi yazılım diliyle kodlandı?",
    "faq-opt-backend-language-desc" : "Proxy denetleyicimiz python3 ile kodlandı.",
    "faq-opt-money" : "Para & bağışlar",
    "faq-opt-money-earn-title" : "Bu proxy websitesinden nasıl para kazanıyorsunuz?",
    "faq-opt-money-earn-desc" : "Şimdilik bu siteden herhangi bir kar yapmıyoruz.",
    "faq-opt-money-donate-title" : "Bağış yapabilir miyim?",
    "faq-opt-money-donate-desc" : "Evet, kripto para birimleriyle yapabilirsin: <br>BTC: 3Bexk92aipRFeW3rQK3SBKBNTQ3URqiR79 <br>ETH: 0x0D3B38690ad9A65737532E694AD534646b8E2562 <br>Bağışlarınıza teşekkür etmek için hakkında kısmında websitenizi / profilinizi paylaşmaya çalışacağız.",
    "faq-opt-money-ads-title" : "İnsanlar indirme butonuna bastıklarında benim sitemin pop-up olarak çıkmasını sağlayabilir misin?",
    "faq-opt-money-ads-desc" : "Evet, kabul edilebilir bir fiyat için reklamınızı sitemizde gösterebiliriz, benimle discord'dan iletişime geçin: Thiplol#0248.",
    "faq-opt-money-cost-title" : "Bu proxy websitesi için ayda ne kadar ödüyorsun?",
    "faq-opt-money-cost-desc" : "Planlarıma göre değişir genelde 30-40$ arası.",
	"faq-opt-others" : "Diğerleri",
    "faq-opt-others-buy-title" : "Proxy satın almak için en iyi yer neresi?",
    "faq-opt-others-buy-desc" : "Ücretli proxyler için buraları öneriyoruz <a href='https://rsocks.net/signup?ref=E59nazidAezSO-GpRyxmcmH-MKKZwV3DiocjVH'>rSocks</a> ve <a href='http://www.proxyrack.com/access/aff/go/psychicalts&#10;'>ProxyRack</a>.",
    "faq-opt-others-sell-title" : "Peki siz proxy satıyor musunuz??",
    "faq-opt-others-sell-desc" : "Ne kadar proxy satmak istesek de ipv4 proxyler çok pahalı ve şuan onun için o kadar paramız yok. Ipv6 proxyler çok ucuz, milyonlarcasını 1$ ve altına satanlar var ama çoğu programlar henüz ipv6 desteklemiyor.",
    "faq-opt-others-start-title" : "Neden bu siteyi kurdun?",
    "faq-opt-others-start-desc" : "Tüm çevrimiçi proxy'leri gösteren ücretsiz proxy listesi web sitelerinin bulunmadığını düşünüyoruz.",
    "faq-opt-others-help-title" : "Bu siteyi yaparken kimler yardımcı oldular?",
    "faq-opt-others-help-desc" : "Bu siteyi yapan asıl kişiler <a href='https://www.nulled.to/user/1193005-notthiplol'>Thiplol</a> ve <a href='https://www.nulled.to/user/1451856-amfuck'>AmKid</a>",
	"poll-title" : "Anket",
    "contact-big-title" : "BİZİMLE İLETİŞİME GEÇİN",
    "contact-title" : "İLETİŞİM HER ŞEYDİR",
    "contact-desc" : "Başka sorularınız var veya bizimle iş mi yapmak istiyorsunuz? Bizimle burdan iletişime geçebilirsiniz",
    "contact-button-title" : "Email atın",
    "contact-button-desc" : "veya direkt olarak buraya mesaj gönderin contact@proxyscrape.com",
    "footer-faq-title" : "Sıkça sorulan sorular",
    "footer-faq-desc" : "Proxyler hakkında veya onlara nasıl bağlanacağın hakkında soruların mı var? Bizimle iletişime geçmeden önce SSS'yi kontrol et.",
    "footer-faq-button" : "SSS'ye git",
    "footer-contact-title" : "Bizimle iletişime geçin",
    "footer-contact-desc" : "SSS'yi okuduktan sonra hala soruların var veya belki ücretsiz proxy servisimize bağış yapmak istiyorsan bizimle buradan iletişime geçebilirsin.",
    "footer-contact-button" : "Bizimle iletişime geçin",
    "footer-discord-title" : "Discord'a katılın",
    "footer-discord-desc" : "Sorularınız varsa veya sadece sohbet etmek istiyorsanız discord serverimize katılın!",
    "footer-discord-button" : "Discord'a katılın",
    "footer-freeproxylist-title" : "Ücretsiz proxy listesi",
    "footer-freeproxylist-desc" : "30000+ HTTP, Socks4 ve Socks5 proxy listelerini her 15 dakikada bir güncelliyoruz.",
    "footer-freeproxylist-button" : "Ücretsiz proxy listesi indir",
    "footer-about-title" : "Proxyscrape hakkında",
    "footer-about-desc" : "Burada size Proxyscrape hakkında biraz daha fazla bilgi vereceğiz, proxyleri nasıl kontrol ettiğimizi ve kimin bu sexy proxy websitesinden sorumlu olduğunu söyleyeceğiz.",
    "footer-about-button" : "Hakkımızdakileri okuyun",
    "footer-checker-title" : "Proxy denetleyici",
    "footer-checker-desc" : "WolfCrawler tarafından yapılan çok hızlı bir proxy denetleyicisi, http, Socks5 ve Socks4 proxyleri inanılmaz bir hızda kontrol edebiliyor.",
    "footer-checker-button" : "Hızlı proxy checker al",
	"footer-notify-1" : "Biraz rahatla ve <a href='https://www.reddit.com/r/proxyscrape'> ProxyScrape sub-reddit'ine katıl</a>",
	"footer-notify-2" : "Bizim Telegram'ımıza <a href='https://t.me/proxyscrape'> Katıl </a>ve ileride neler olacağını daha temiz bir şekilde öğren!",
	"footer-notify-3" : "Bizim Discord'umuza<a href='https://proxyscrape.com/discord'> Katıl </a>ve yakında neler geleceğini öğren!",
	"footer-notify-4" : "Proxyscrape'i beğeniyor musun? Bağış yapmayı gözden <a href='/en/donate'>geçirin!</a>",
	"footer-dark" : "Karanlık tema",
	"footer-light" : "Açık tema",
	"footer-notify-close" : "Kapat"
}